Engine/Binaries/Win64/UE4Game.exe	2018-03-16T09:13:14.832Z
Engine/Extras/Redist/en-us/UE4PrereqSetup_x64.exe	2018-03-16T09:17:20.232Z
Engine/Binaries/ThirdParty/Oculus/OVRPlugin/OVRPlugin/Win64/OVRPlugin.dll	2018-03-16T09:11:06.705Z
Engine/Binaries/ThirdParty/NVIDIA/NVaftermath/Win64/GFSDK_Aftermath_Lib.dll	2018-03-16T09:11:03.138Z
Engine/Binaries/ThirdParty/Windows/DirectX/x64/WinPixEventRuntime.dll	2018-03-16T09:11:21.063Z
Engine/Binaries/ThirdParty/PhysX/Win64/VS2015/PxFoundationPROFILE_x64.dll	2018-03-16T09:11:18.222Z
Engine/Binaries/ThirdParty/PhysX/Win64/VS2015/PxPvdSDKPROFILE_x64.dll	2018-03-16T09:11:18.227Z
Engine/Binaries/ThirdParty/PhysX/Win64/VS2015/PhysX3PROFILE_x64.dll	2018-03-16T09:11:17.942Z
Engine/Binaries/ThirdParty/PhysX/Win64/VS2015/PhysX3CookingPROFILE_x64.dll	2018-03-16T09:11:17.450Z
Engine/Binaries/ThirdParty/PhysX/Win64/VS2015/PhysX3CommonPROFILE_x64.dll	2018-03-16T09:11:17.444Z
Engine/Binaries/ThirdParty/PhysX/Win64/VS2015/APEX_ClothingPROFILE_x64.dll	2018-03-16T09:11:15.745Z
Engine/Binaries/ThirdParty/PhysX/Win64/VS2015/APEX_LegacyPROFILE_x64.dll	2018-03-16T09:11:16.180Z
Engine/Binaries/ThirdParty/PhysX/Win64/VS2015/ApexFrameworkPROFILE_x64.dll	2018-03-16T09:11:16.951Z
Engine/Binaries/ThirdParty/PhysX/Win64/VS2015/NvClothPROFILE_x64.dll	2018-03-16T09:11:16.956Z
Engine/Binaries/ThirdParty/Ogg/Win64/VS2015/libogg_64.dll	2018-03-16T09:11:06.709Z
Engine/Binaries/ThirdParty/Vorbis/Win64/VS2015/libvorbis_64.dll	2018-03-16T09:11:20.052Z
Engine/Binaries/ThirdParty/Vorbis/Win64/VS2015/libvorbisfile_64.dll	2018-03-16T09:11:20.054Z
Engine/Binaries/ThirdParty/OpenVR/OpenVRv1_0_10/Win64/openvr_api.dll	2018-03-16T09:11:07.455Z
ForestOfSurprises.exe	2018-10-19T21:30:07.555Z
